Project1-ALU/simulation/qsim/ALU.msim.vcd
$comment
	File created using the following command:
		vcd file ALU.msim.vcd -direction
$end
$date
	Thu Sep 23 02:21:41 2021
$end
$version
	ModelSim Version 10.4d
$end
$timescale
	1ps
$end

$scope module mux_4to1_32b_vlg_vec_tst $end
$var reg 32 ! in0 [31:0] $end
$var reg 32 " in1 [31:0] $end
$var reg 32 # in2 [31:0] $end
$var reg 32 $ in3 [31:0] $end
$var reg 2 % sel [1:0] $end
$var wire 1 & out [31] $end
$var wire 1 ' out [30] $end
$var wire 1 ( out [29] $end
$var wire 1 ) out [28] $end
$var wire 1 * out [27] $end
$var wire 1 + out [26] $end
$var wire 1 , out [25] $end
$var wire 1 - out [24] $end
$var wire 1 . out [23] $end
$var wire 1 / out [22] $end
$var wire 1 0 out [21] $end
$var wire 1 1 out [20] $end
$var wire 1 2 out [19] $end
$var wire 1 3 out [18] $end
$var wire 1 4 out [17] $end
$var wire 1 5 out [16] $end
$var wire 1 6 out [15] $end
$var wire 1 7 out [14] $end
$var wire 1 8 out [13] $end
$var wire 1 9 out [12] $end
$var wire 1 : out [11] $end
$var wire 1 ; out [10] $end
$var wire 1 < out [9] $end
$var wire 1 = out [8] $end
$var wire 1 > out [7] $end
$var wire 1 ? out [6] $end
$var wire 1 @ out [5] $end
$var wire 1 A out [4] $end
$var wire 1 B out [3] $end
$var wire 1 C out [2] $end
$var wire 1 D out [1] $end
$var wire 1 E out [0] $end

$scope module i1 $end
$var wire 1 F gnd $end
$var wire 1 G vcc $end
$var wire 1 H unknown $end
$var tri1 1 I devclrn $end
$var tri1 1 J devpor $end
$var tri1 1 K devoe $end
$var wire 1 L in0[1]~input_o $end
$var wire 1 M in0[2]~input_o $end
$var wire 1 N in0[3]~input_o $end
$var wire 1 O in0[4]~input_o $end
$var wire 1 P in0[5]~input_o $end
$var wire 1 Q in0[6]~input_o $end
$var wire 1 R in0[7]~input_o $end
$var wire 1 S in0[8]~input_o $end
$var wire 1 T in0[9]~input_o $end
$var wire 1 U in0[10]~input_o $end
$var wire 1 V in0[11]~input_o $end
$var wire 1 W in0[12]~input_o $end
$var wire 1 X in0[13]~input_o $end
$var wire 1 Y in0[14]~input_o $end
$var wire 1 Z in0[15]~input_o $end
$var wire 1 [ in0[16]~input_o $end
$var wire 1 \ in0[17]~input_o $end
$var wire 1 ] in0[18]~input_o $end
$var wire 1 ^ in0[19]~input_o $end
$var wire 1 _ in0[20]~input_o $end
$var wire 1 ` in0[21]~input_o $end
$var wire 1 a in0[22]~input_o $end
$var wire 1 b in0[23]~input_o $end
$var wire 1 c in0[24]~input_o $end
$var wire 1 d in0[25]~input_o $end
$var wire 1 e in0[26]~input_o $end
$var wire 1 f in0[27]~input_o $end
$var wire 1 g in0[28]~input_o $end
$var wire 1 h in0[29]~input_o $end
$var wire 1 i in0[30]~input_o $end
$var wire 1 j in0[31]~input_o $end
$var wire 1 k in1[1]~input_o $end
$var wire 1 l in1[2]~input_o $end
$var wire 1 m in1[3]~input_o $end
$var wire 1 n in1[4]~input_o $end
$var wire 1 o in1[5]~input_o $end
$var wire 1 p in1[6]~input_o $end
$var wire 1 q in1[7]~input_o $end
$var wire 1 r in1[8]~input_o $end
$var wire 1 s in1[9]~input_o $end
$var wire 1 t in1[10]~input_o $end
$var wire 1 u in1[11]~input_o $end
$var wire 1 v in1[12]~input_o $end
$var wire 1 w in1[13]~input_o $end
$var wire 1 x in1[14]~input_o $end
$var wire 1 y in1[15]~input_o $end
$var wire 1 z in1[16]~input_o $end
$var wire 1 { in1[17]~input_o $end
$var wire 1 | in1[18]~input_o $end
$var wire 1 } in1[19]~input_o $end
$var wire 1 ~ in1[20]~input_o $end
$var wire 1 !! in1[21]~input_o $end
$var wire 1 "! in1[22]~input_o $end
$var wire 1 #! in1[23]~input_o $end
$var wire 1 $! in1[24]~input_o $end
$var wire 1 %! in1[25]~input_o $end
$var wire 1 &! in1[26]~input_o $end
$var wire 1 '! in1[27]~input_o $end
$var wire 1 (! in1[28]~input_o $end
$var wire 1 )! in1[29]~input_o $end
$var wire 1 *! in1[30]~input_o $end
$var wire 1 +! in1[31]~input_o $end
$var wire 1 ,! in2[1]~input_o $end
$var wire 1 -! in2[2]~input_o $end
$var wire 1 .! in2[3]~input_o $end
$var wire 1 /! in2[4]~input_o $end
$var wire 1 0! in2[5]~input_o $end
$var wire 1 1! in2[6]~input_o $end
$var wire 1 2! in2[7]~input_o $end
$var wire 1 3! in2[8]~input_o $end
$var wire 1 4! in2[9]~input_o $end
$var wire 1 5! in2[10]~input_o $end
$var wire 1 6! in2[11]~input_o $end
$var wire 1 7! in2[12]~input_o $end
$var wire 1 8! in2[13]~input_o $end
$var wire 1 9! in2[14]~input_o $end
$var wire 1 :! in2[15]~input_o $end
$var wire 1 ;! in2[16]~input_o $end
$var wire 1 <! in2[17]~input_o $end
$var wire 1 =! in2[18]~input_o $end
$var wire 1 >! in2[19]~input_o $end
$var wire 1 ?! in2[20]~input_o $end
$var wire 1 @! in2[21]~input_o $end
$var wire 1 A! in2[22]~input_o $end
$var wire 1 B! in2[23]~input_o $end
$var wire 1 C! in2[24]~input_o $end
$var wire 1 D! in2[25]~input_o $end
$var wire 1 E! in2[26]~input_o $end
$var wire 1 F! in2[27]~input_o $end
$var wire 1 G! in2[28]~input_o $end
$var wire 1 H! in2[29]~input_o $end
$var wire 1 I! in2[30]~input_o $end
$var wire 1 J! in2[31]~input_o $end
$var wire 1 K! in3[1]~input_o $end
$var wire 1 L! in3[2]~input_o $end
$var wire 1 M! in3[3]~input_o $end
$var wire 1 N! in3[4]~input_o $end
$var wire 1 O! in3[5]~input_o $end
$var wire 1 P! in3[6]~input_o $end
$var wire 1 Q! in3[7]~input_o $end
$var wire 1 R! in3[8]~input_o $end
$var wire 1 S! in3[9]~input_o $end
$var wire 1 T! in3[10]~input_o $end
$var wire 1 U! in3[11]~input_o $end
$var wire 1 V! in3[12]~input_o $end
$var wire 1 W! in3[13]~input_o $end
$var wire 1 X! in3[14]~input_o $end
$var wire 1 Y! in3[15]~input_o $end
$var wire 1 Z! in3[16]~input_o $end
$var wire 1 [! in3[17]~input_o $end
$var wire 1 \! in3[18]~input_o $end
$var wire 1 ]! in3[19]~input_o $end
$var wire 1 ^! in3[20]~input_o $end
$var wire 1 _! in3[21]~input_o $end
$var wire 1 `! in3[22]~input_o $end
$var wire 1 a! in3[23]~input_o $end
$var wire 1 b! in3[24]~input_o $end
$var wire 1 c! in3[25]~input_o $end
$var wire 1 d! in3[26]~input_o $end
$var wire 1 e! in3[27]~input_o $end
$var wire 1 f! in3[28]~input_o $end
$var wire 1 g! in3[29]~input_o $end
$var wire 1 h! in3[30]~input_o $end
$var wire 1 i! in3[31]~input_o $end
$var wire 1 j! out[0]~output_o $end
$var wire 1 k! out[1]~output_o $end
$var wire 1 l! out[2]~output_o $end
$var wire 1 m! out[3]~output_o $end
$var wire 1 n! out[4]~output_o $end
$var wire 1 o! out[5]~output_o $end
$var wire 1 p! out[6]~output_o $end
$var wire 1 q! out[7]~output_o $end
$var wire 1 r! out[8]~output_o $end
$var wire 1 s! out[9]~output_o $end
$var wire 1 t! out[10]~output_o $end
$var wire 1 u! out[11]~output_o $end
$var wire 1 v! out[12]~output_o $end
$var wire 1 w! out[13]~output_o $end
$var wire 1 x! out[14]~output_o $end
$var wire 1 y! out[15]~output_o $end
$var wire 1 z! out[16]~output_o $end
$var wire 1 {! out[17]~output_o $end
$var wire 1 |! out[18]~output_o $end
$var wire 1 }! out[19]~output_o $end
$var wire 1 ~! out[20]~output_o $end
$var wire 1 !" out[21]~output_o $end
$var wire 1 "" out[22]~output_o $end
$var wire 1 #" out[23]~output_o $end
$var wire 1 $" out[24]~output_o $end
$var wire 1 %" out[25]~output_o $end
$var wire 1 &" out[26]~output_o $end
$var wire 1 '" out[27]~output_o $end
$var wire 1 (" out[28]~output_o $end
$var wire 1 )" out[29]~output_o $end
$var wire 1 *" out[30]~output_o $end
$var wire 1 +" out[31]~output_o $end
$var wire 1 ," in2[0]~input_o $end
$var wire 1 -" sel[1]~input_o $end
$var wire 1 ." in1[0]~input_o $end
$var wire 1 /" sel[0]~input_o $end
$var wire 1 0" in0[0]~input_o $end
$var wire 1 1" mux_2to1_result|out[0]~0_combout $end
$var wire 1 2" in3[0]~input_o $end
$var wire 1 3" mux_2to1_result|out[0]~1_combout $end
$upscope $end
$upscope $end
$enddefinitions $end
#0
$dumpvars
b0 !
b0 "
b0 #
b0 $
b0 %
0E
0D
0C
0B
0A
0@
0?
0>
0=
0<
0;
0:
09
08
07
06
05
04
03
02
01
00
0/
0.
0-
0,
0+
0*
0)
0(
0'
0&
0F
1G
xH
1I
1J
1K
0L
0M
0N
0O
0P
0Q
0R
0S
0T
0U
0V
0W
0X
0Y
0Z
0[
0\
0]
0^
0_
0`
0a
0b
0c
0d
0e
0f
0g
0h
0i
0j
0k
0l
0m
0n
0o
0p
0q
0r
0s
0t
0u
0v
0w
0x
0y
0z
0{
0|
0}
0~
0!!
0"!
0#!
0$!
0%!
0&!
0'!
0(!
0)!
0*!
0+!
0,!
0-!
0.!
0/!
00!
01!
02!
03!
04!
05!
06!
07!
08!
09!
0:!
0;!
0<!
0=!
0>!
0?!
0@!
0A!
0B!
0C!
0D!
0E!
0F!
0G!
0H!
0I!
0J!
0K!
0L!
0M!
0N!
0O!
0P!
0Q!
0R!
0S!
0T!
0U!
0V!
0W!
0X!
0Y!
0Z!
0[!
0\!
0]!
0^!
0_!
0`!
0a!
0b!
0c!
0d!
0e!
0f!
0g!
0h!
0i!
0j!
0k!
0l!
0m!
0n!
0o!
0p!
0q!
0r!
0s!
0t!
0u!
0v!
0w!
0x!
0y!
0z!
0{!
0|!
0}!
0~!
0!"
0""
0#"
0$"
0%"
0&"
0'"
0("
0)"
0*"
0+"
0,"
0-"
0."
0/"
00"
01"
02"
03"
$end
#10000
b1 !
b10 "
b10 #
b11 #
b100 $
b1 %
1/"
1L!
1,"
1,!
1k
10"
#20000
b11 !
b110 "
b111 #
b1100 $
b11 %
b10 !
b100 "
b110 #
b1000 $
b10 %
0/"
1-"
0L!
1M!
0,"
1-!
0k
1l
00"
1L
#30000
b1110 #
b1100 #
b1000 #
b11 !
b110 "
b1001 #
b1100 $
b11 %
1/"
1L!
1k
10"
1,"
0,!
0-!
1.!
11"
13"
1j!
1E
03"
0j!
0E
#40000
b111 !
b1110 "
b11100 $
b101 !
b1010 "
b10100 $
b1 %
b1101 #
b100 !
b1000 "
b1100 #
b10000 $
b0 %
0,"
1-!
0/"
0-"
0L!
0M!
1N!
0k
0l
1m
00"
0L
1M
01"
13"
1j!
1E
03"
0j!
0E
#50000
b1110 #
b101 !
b1010 "
b1111 #
b10100 $
b1 %
1/"
1L!
1k
10"
1,"
1,!
#60000
b11111 #
b10111 #
b111 !
b1110 "
b11100 $
b11 %
b10011 #
b110 !
b1100 "
b10010 #
b11000 $
b10 %
0/"
1-"
0L!
1M!
0k
1l
00"
1L
0,"
0-!
0.!
1/!
#70000
b10000 #
b10100 #
b111 !
b1110 "
b10101 #
b11100 $
b11 %
1/"
1L!
1k
10"
1,"
0,!
1-!
11"
13"
1j!
1E
03"
0j!
0E
#80000
b1111 !
b11110 "
b111100 $
b1011 !
b10110 "
b101100 $
b11101 #
b1001 !
b10010 "
b100100 $
b1 %
b11001 #
b1000 !
b10000 "
b11000 #
b100000 $
b0 %
0/"
0-"
0,"
0-!
1.!
0L!
0M!
0N!
1O!
0k
0l
0m
1n
00"
0L
0M
1N
01"
13"
1j!
1E
03"
0j!
0E
#90000
b11010 #
b1001 !
b10010 "
b11011 #
b100100 $
b1 %
1/"
1L!
1k
10"
1,"
1,!
#100000
b1011 !
b10110 "
b101100 $
b11 %
b11111 #
b1010 !
b10100 "
b11110 #
b101000 $
b10 %
0,"
1-!
0/"
1-"
0L!
1M!
0k
1l
00"
1L
#110000
b111110 #
b101110 #
b100110 #
b100100 #
b100000 #
b1011 !
b10110 "
b100001 #
b101100 $
b11 %
1/"
1L!
1k
10"
1,"
0,!
0-!
0.!
0/!
10!
11"
13"
1j!
1E
03"
0j!
0E
#120000
b1111 !
b11110 "
b111100 $
b1101 !
b11010 "
b110100 $
b1 %
b100101 #
b1100 !
b11000 "
b100100 #
b110000 $
b0 %
0,"
1-!
0/"
0-"
0L!
0M!
1N!
0k
0l
1m
00"
0L
1M
01"
13"
1j!
1E
03"
0j!
0E
#130000
b100110 #
b1101 !
b11010 "
b100111 #
b110100 $
b1 %
1/"
1L!
1k
10"
1,"
1,!
#140000
b101111 #
b1111 !
b11110 "
b111100 $
b11 %
b101011 #
b1110 !
b11100 "
b101010 #
b111000 $
b10 %
0/"
1-"
0L!
1M!
0k
1l
00"
1L
0,"
0-!
1.!
#150000
b101000 #
b101100 #
b1111 !
b11110 "
b101101 #
b111100 $
b11 %
1/"
1L!
1k
10"
1,"
0,!
1-!
11"
13"
1j!
1E
03"
0j!
0E
#160000
b11111 !
b111110 "
b1111100 $
b10111 !
b101110 "
b1011100 $
b111101 #
b10011 !
b100110 "
b1001100 $
b110101 #
b10001 !
b100010 "
b1000100 $
b1 %
b110001 #
b10000 !
b100000 "
b110000 #
b1000000 $
b0 %
0/"
0-"
0,"
0-!
0.!
1/!
0L!
0M!
0N!
0O!
1P!
0k
0l
0m
0n
1o
00"
0L
0M
0N
1O
01"
13"
1j!
1E
03"
0j!
0E
#170000
b110010 #
b10001 !
b100010 "
b110011 #
b1000100 $
b1 %
1/"
1L!
1k
10"
1,"
1,!
#180000
b10011 !
b100110 "
b1001100 $
b11 %
b110111 #
b10010 !
b100100 "
b110110 #
b1001000 $
b10 %
0,"
1-!
0/"
1-"
0L!
1M!
0k
1l
00"
1L
#190000
b111110 #
b111100 #
b111000 #
b10011 !
b100110 "
b111001 #
b1001100 $
b11 %
1/"
1L!
1k
10"
1,"
0,!
0-!
1.!
11"
13"
1j!
1E
03"
0j!
0E
#200000
b10111 !
b101110 "
b1011100 $
b10101 !
b101010 "
b1010100 $
b1 %
b111101 #
b10100 !
b101000 "
b111100 #
b1010000 $
b0 %
0,"
1-!
0/"
0-"
0L!
0M!
1N!
0k
0l
1m
00"
0L
1M
01"
13"
1j!
1E
03"
0j!
0E
#210000
b111110 #
b10101 !
b101010 "
b111111 #
b1010100 $
b1 %
1/"
1L!
1k
10"
1,"
1,!
#220000
b1111111 #
b1011111 #
b1001111 #
b1000111 #
b10111 !
b101110 "
b1011100 $
b11 %
b1000011 #
b10110 !
b101100 "
b1000010 #
b1011000 $
b10 %
0/"
1-"
0L!
1M!
0k
1l
00"
1L
0,"
0-!
0.!
0/!
00!
11!
#230000
b1000000 #
b1000100 #
b10111 !
b101110 "
b1000101 #
b1011100 $
b11 %
1/"
1L!
1k
10"
1,"
0,!
1-!
11"
13"
1j!
1E
03"
0j!
0E
#240000
b11111 !
b111110 "
b1111100 $
b11011 !
b110110 "
b1101100 $
b1001101 #
b11001 !
b110010 "
b1100100 $
b1 %
b1001001 #
b11000 !
b110000 "
b1001000 #
b1100000 $
b0 %
0/"
0-"
0,"
0-!
1.!
0L!
0M!
0N!
1O!
0k
0l
0m
1n
00"
0L
0M
1N
01"
13"
1j!
1E
03"
0j!
0E
#250000
b1001010 #
b11001 !
b110010 "
b1001011 #
b1100100 $
b1 %
1/"
1L!
1k
10"
1,"
1,!
#260000
b11011 !
b110110 "
b1101100 $
b11 %
b1001111 #
b11010 !
b110100 "
b1001110 #
b1101000 $
b10 %
0,"
1-!
0/"
1-"
0L!
1M!
0k
1l
00"
1L
#270000
b1011110 #
b1010110 #
b1010100 #
b1010000 #
b11011 !
b110110 "
b1010001 #
b1101100 $
b11 %
1/"
1L!
1k
10"
1,"
0,!
0-!
0.!
1/!
11"
13"
1j!
1E
03"
0j!
0E
#280000
b11111 !
b111110 "
b1111100 $
b11101 !
b111010 "
b1110100 $
b1 %
b1010101 #
b11100 !
b111000 "
b1010100 #
b1110000 $
b0 %
0,"
1-!
0/"
0-"
0L!
0M!
1N!
0k
0l
1m
00"
0L
1M
01"
13"
1j!
1E
03"
0j!
0E
#290000
b1010110 #
b11101 !
b111010 "
b1010111 #
b1110100 $
b1 %
1/"
1L!
1k
10"
1,"
1,!
#300000
b1011111 #
b11111 !
b111110 "
b1111100 $
b11 %
b1011011 #
b11110 !
b111100 "
b1011010 #
b1111000 $
b10 %
0/"
1-"
0L!
1M!
0k
1l
00"
1L
0,"
0-!
1.!
#310000
b1011000 #
b1011100 #
b11111 !
b111110 "
b1011101 #
b1111100 $
b11 %
1/"
1L!
1k
10"
1,"
0,!
1-!
11"
13"
1j!
1E
03"
0j!
0E
#320000
b111111 !
b1111110 "
b11111100 $
b101111 !
b1011110 "
b10111100 $
b1111101 #
b100111 !
b1001110 "
b10011100 $
b1101101 #
b100011 !
b1000110 "
b10001100 $
b1100101 #
b100001 !
b1000010 "
b10000100 $
b1 %
b1100001 #
b100000 !
b1000000 "
b1100000 #
b10000000 $
b0 %
0/"
0-"
0,"
0-!
0.!
0/!
10!
0L!
0M!
0N!
0O!
0P!
1Q!
0k
0l
0m
0n
0o
1p
00"
0L
0M
0N
0O
1P
01"
13"
1j!
1E
03"
0j!
0E
#330000
b1100010 #
b100001 !
b1000010 "
b1100011 #
b10000100 $
b1 %
1/"
1L!
1k
10"
1,"
1,!
#340000
b100011 !
b1000110 "
b10001100 $
b11 %
b1100111 #
b100010 !
b1000100 "
b1100110 #
b10001000 $
b10 %
0,"
1-!
0/"
1-"
0L!
1M!
0k
1l
00"
1L
#350000
b1101110 #
b1101100 #
b1101000 #
b100011 !
b1000110 "
b1101001 #
b10001100 $
b11 %
1/"
1L!
1k
10"
1,"
0,!
0-!
1.!
11"
13"
1j!
1E
03"
0j!
0E
#360000
b100111 !
b1001110 "
b10011100 $
b100101 !
b1001010 "
b10010100 $
b1 %
b1101101 #
b100100 !
b1001000 "
b1101100 #
b10010000 $
b0 %
0,"
1-!
0/"
0-"
0L!
0M!
1N!
0k
0l
1m
00"
0L
1M
01"
13"
1j!
1E
03"
0j!
0E
#370000
b1101110 #
b100101 !
b1001010 "
b1101111 #
b10010100 $
b1 %
1/"
1L!
1k
10"
1,"
1,!
#380000
b1111111 #
b1110111 #
b100111 !
b1001110 "
b10011100 $
b11 %
b1110011 #
b100110 !
b1001100 "
b1110010 #
b10011000 $
b10 %
0/"
1-"
0L!
1M!
0k
1l
00"
1L
0,"
0-!
0.!
1/!
#390000
b1110000 #
b1110100 #
b100111 !
b1001110 "
b1110101 #
b10011100 $
b11 %
1/"
1L!
1k
10"
1,"
0,!
1-!
11"
13"
1j!
1E
03"
0j!
0E
#400000
b101111 !
b1011110 "
b10111100 $
b101011 !
b1010110 "
b10101100 $
b1111101 #
b101001 !
b1010010 "
b10100100 $
b1 %
b1111001 #
b101000 !
b1010000 "
b1111000 #
b10100000 $
b0 %
0/"
0-"
0,"
0-!
1.!
0L!
0M!
0N!
1O!
0k
0l
0m
1n
00"
0L
0M
1N
01"
13"
1j!
1E
03"
0j!
0E
#410000
b1111010 #
b101001 !
b1010010 "
b1111011 #
b10100100 $
b1 %
1/"
1L!
1k
10"
1,"
1,!
#420000
b101011 !
b1010110 "
b10101100 $
b11 %
b1111111 #
b101010 !
b1010100 "
b1111110 #
b10101000 $
b10 %
0,"
1-!
0/"
1-"
0L!
1M!
0k
1l
00"
1L
#430000
b11111110 #
b10111110 #
b10011110 #
b10001110 #
b10000110 #
b10000100 #
b10000000 #
b101011 !
b1010110 "
b10000001 #
b10101100 $
b11 %
1/"
1L!
1k
10"
1,"
0,!
0-!
0.!
0/!
00!
01!
12!
11"
13"
1j!
1E
03"
0j!
0E
#440000
b101111 !
b1011110 "
b10111100 $
b101101 !
b1011010 "
b10110100 $
b1 %
b10000101 #
b101100 !
b1011000 "
b10000100 #
b10110000 $
b0 %
0,"
1-!
0/"
0-"
0L!
0M!
1N!
0k
0l
1m
00"
0L
1M
01"
13"
1j!
1E
03"
0j!
0E
#450000
b10000110 #
b101101 !
b1011010 "
b10000111 #
b10110100 $
b1 %
1/"
1L!
1k
10"
1,"
1,!
#460000
b10001111 #
b101111 !
b1011110 "
b10111100 $
b11 %
b10001011 #
b101110 !
b1011100 "
b10001010 #
b10111000 $
b10 %
0/"
1-"
0L!
1M!
0k
1l
00"
1L
0,"
0-!
1.!
#470000
b10001000 #
b10001100 #
b101111 !
b1011110 "
b10001101 #
b10111100 $
b11 %
1/"
1L!
1k
10"
1,"
0,!
1-!
11"
13"
1j!
1E
03"
0j!
0E
#480000
b111111 !
b1111110 "
b11111100 $
b110111 !
b1101110 "
b11011100 $
b10011101 #
b110011 !
b1100110 "
b11001100 $
b10010101 #
b110001 !
b1100010 "
b11000100 $
b1 %
b10010001 #
b110000 !
b1100000 "
b10010000 #
b11000000 $
b0 %
0/"
0-"
0,"
0-!
0.!
1/!
0L!
0M!
0N!
0O!
1P!
0k
0l
0m
0n
1o
00"
0L
0M
0N
1O
01"
13"
1j!
1E
03"
0j!
0E
#490000
b10010010 #
b110001 !
b1100010 "
b10010011 #
b11000100 $
b1 %
1/"
1L!
1k
10"
1,"
1,!
#500000
b110011 !
b1100110 "
b11001100 $
b11 %
b10010111 #
b110010 !
b1100100 "
b10010110 #
b11001000 $
b10 %
0,"
1-!
0/"
1-"
0L!
1M!
0k
1l
00"
1L
#510000
b10011110 #
b10011100 #
b10011000 #
b110011 !
b1100110 "
b10011001 #
b11001100 $
b11 %
1/"
1L!
1k
10"
1,"
0,!
0-!
1.!
11"
13"
1j!
1E
03"
0j!
0E
#520000
b110111 !
b1101110 "
b11011100 $
b110101 !
b1101010 "
b11010100 $
b1 %
b10011101 #
b110100 !
b1101000 "
b10011100 #
b11010000 $
b0 %
0,"
1-!
0/"
0-"
0L!
0M!
1N!
0k
0l
1m
00"
0L
1M
01"
13"
1j!
1E
03"
0j!
0E
#530000
b10011110 #
b110101 !
b1101010 "
b10011111 #
b11010100 $
b1 %
1/"
1L!
1k
10"
1,"
1,!
#540000
b10111111 #
b10101111 #
b10100111 #
b110111 !
b1101110 "
b11011100 $
b11 %
b10100011 #
b110110 !
b1101100 "
b10100010 #
b11011000 $
b10 %
0/"
1-"
0L!
1M!
0k
1l
00"
1L
0,"
0-!
0.!
0/!
10!
#550000
b10100000 #
b10100100 #
b110111 !
b1101110 "
b10100101 #
b11011100 $
b11 %
1/"
1L!
1k
10"
1,"
0,!
1-!
11"
13"
1j!
1E
03"
0j!
0E
#560000
b111111 !
b1111110 "
b11111100 $
b111011 !
b1110110 "
b11101100 $
b10101101 #
b111001 !
b1110010 "
b11100100 $
b1 %
b10101001 #
b111000 !
b1110000 "
b10101000 #
b11100000 $
b0 %
0/"
0-"
0,"
0-!
1.!
0L!
0M!
0N!
1O!
0k
0l
0m
1n
00"
0L
0M
1N
01"
13"
1j!
1E
03"
0j!
0E
#570000
b10101010 #
b111001 !
b1110010 "
b10101011 #
b11100100 $
b1 %
1/"
1L!
1k
10"
1,"
1,!
#580000
b111011 !
b1110110 "
b11101100 $
b11 %
b10101111 #
b111010 !
b1110100 "
b10101110 #
b11101000 $
b10 %
0,"
1-!
0/"
1-"
0L!
1M!
0k
1l
00"
1L
#590000
b10111110 #
b10110110 #
b10110100 #
b10110000 #
b111011 !
b1110110 "
b10110001 #
b11101100 $
b11 %
1/"
1L!
1k
10"
1,"
0,!
0-!
0.!
1/!
11"
13"
1j!
1E
03"
0j!
0E
#600000
b111111 !
b1111110 "
b11111100 $
b111101 !
b1111010 "
b11110100 $
b1 %
b10110101 #
b111100 !
b1111000 "
b10110100 #
b11110000 $
b0 %
0,"
1-!
0/"
0-"
0L!
0M!
1N!
0k
0l
1m
00"
0L
1M
01"
13"
1j!
1E
03"
0j!
0E
#610000
b10110110 #
b111101 !
b1111010 "
b10110111 #
b11110100 $
b1 %
1/"
1L!
1k
10"
1,"
1,!
#620000
b10111111 #
b111111 !
b1111110 "
b11111100 $
b11 %
b10111011 #
b111110 !
b1111100 "
b10111010 #
b11111000 $
b10 %
0/"
1-"
0L!
1M!
0k
1l
00"
1L
0,"
0-!
1.!
#630000
b10111000 #
b10111100 #
b111111 !
b1111110 "
b10111101 #
b11111100 $
b11 %
1/"
1L!
1k
10"
1,"
0,!
1-!
11"
13"
1j!
1E
03"
0j!
0E
#640000
b1111111 !
b11111110 "
b111111100 $
b1011111 !
b10111110 "
b101111100 $
b11111101 #
b1001111 !
b10011110 "
b100111100 $
b11011101 #
b1000111 !
b10001110 "
b100011100 $
b11001101 #
b1000011 !
b10000110 "
b100001100 $
b11000101 #
b1000001 !
b10000010 "
b100000100 $
b1 %
b11000001 #
b1000000 !
b10000000 "
b11000000 #
b100000000 $
b0 %
0/"
0-"
0,"
0-!
0.!
0/!
00!
11!
0L!
0M!
0N!
0O!
0P!
0Q!
1R!
0k
0l
0m
0n
0o
0p
1q
00"
0L
0M
0N
0O
0P
1Q
01"
13"
1j!
1E
03"
0j!
0E
#650000
b11000010 #
b1000001 !
b10000010 "
b11000011 #
b100000100 $
b1 %
1/"
1L!
1k
10"
1,"
1,!
#660000
b1000011 !
b10000110 "
b100001100 $
b11 %
b11000111 #
b1000010 !
b10000100 "
b11000110 #
b100001000 $
b10 %
0,"
1-!
0/"
1-"
0L!
1M!
0k
1l
00"
1L
#670000
b11001110 #
b11001100 #
b11001000 #
b1000011 !
b10000110 "
b11001001 #
b100001100 $
b11 %
1/"
1L!
1k
10"
1,"
0,!
0-!
1.!
11"
13"
1j!
1E
03"
0j!
0E
#680000
b1000111 !
b10001110 "
b100011100 $
b1000101 !
b10001010 "
b100010100 $
b1 %
b11001101 #
b1000100 !
b10001000 "
b11001100 #
b100010000 $
b0 %
0,"
1-!
0/"
0-"
0L!
0M!
1N!
0k
0l
1m
00"
0L
1M
01"
13"
1j!
1E
03"
0j!
0E
#690000
b11001110 #
b1000101 !
b10001010 "
b11001111 #
b100010100 $
b1 %
1/"
1L!
1k
10"
1,"
1,!
#700000
b11011111 #
b11010111 #
b1000111 !
b10001110 "
b100011100 $
b11 %
b11010011 #
b1000110 !
b10001100 "
b11010010 #
b100011000 $
b10 %
0/"
1-"
0L!
1M!
0k
1l
00"
1L
0,"
0-!
0.!
1/!
#710000
b11010000 #
b11010100 #
b1000111 !
b10001110 "
b11010101 #
b100011100 $
b11 %
1/"
1L!
1k
10"
1,"
0,!
1-!
11"
13"
1j!
1E
03"
0j!
0E
#720000
b1001111 !
b10011110 "
b100111100 $
b1001011 !
b10010110 "
b100101100 $
b11011101 #
b1001001 !
b10010010 "
b100100100 $
b1 %
b11011001 #
b1001000 !
b10010000 "
b11011000 #
b100100000 $
b0 %
0/"
0-"
0,"
0-!
1.!
0L!
0M!
0N!
1O!
0k
0l
0m
1n
00"
0L
0M
1N
01"
13"
1j!
1E
03"
0j!
0E
#730000
b11011010 #
b1001001 !
b10010010 "
b11011011 #
b100100100 $
b1 %
1/"
1L!
1k
10"
1,"
1,!
#740000
b1001011 !
b10010110 "
b100101100 $
b11 %
b11011111 #
b1001010 !
b10010100 "
b11011110 #
b100101000 $
b10 %
0,"
1-!
0/"
1-"
0L!
1M!
0k
1l
00"
1L
#750000
b11111110 #
b11101110 #
b11100110 #
b11100100 #
b11100000 #
b1001011 !
b10010110 "
b11100001 #
b100101100 $
b11 %
1/"
1L!
1k
10"
1,"
0,!
0-!
0.!
0/!
10!
11"
13"
1j!
1E
03"
0j!
0E
#760000
b1001111 !
b10011110 "
b100111100 $
b1001101 !
b10011010 "
b100110100 $
b1 %
b11100101 #
b1001100 !
b10011000 "
b11100100 #
b100110000 $
b0 %
0,"
1-!
0/"
0-"
0L!
0M!
1N!
0k
0l
1m
00"
0L
1M
01"
13"
1j!
1E
03"
0j!
0E
#770000
b11100110 #
b1001101 !
b10011010 "
b11100111 #
b100110100 $
b1 %
1/"
1L!
1k
10"
1,"
1,!
#780000
b11101111 #
b1001111 !
b10011110 "
b100111100 $
b11 %
b11101011 #
b1001110 !
b10011100 "
b11101010 #
b100111000 $
b10 %
0/"
1-"
0L!
1M!
0k
1l
00"
1L
0,"
0-!
1.!
#790000
b11101000 #
b11101100 #
b1001111 !
b10011110 "
b11101101 #
b100111100 $
b11 %
1/"
1L!
1k
10"
1,"
0,!
1-!
11"
13"
1j!
1E
03"
0j!
0E
#800000
b1011111 !
b10111110 "
b101111100 $
b1010111 !
b10101110 "
b101011100 $
b11111101 #
b1010011 !
b10100110 "
b101001100 $
b11110101 #
b1010001 !
b10100010 "
b101000100 $
b1 %
b11110001 #
b1010000 !
b10100000 "
b11110000 #
b101000000 $
b0 %
0/"
0-"
0,"
0-!
0.!
1/!
0L!
0M!
0N!
0O!
1P!
0k
0l
0m
0n
1o
00"
0L
0M
0N
1O
01"
13"
1j!
1E
03"
0j!
0E
#810000
b11110010 #
b1010001 !
b10100010 "
b11110011 #
b101000100 $
b1 %
1/"
1L!
1k
10"
1,"
1,!
#820000
b1010011 !
b10100110 "
b101001100 $
b11 %
b11110111 #
b1010010 !
b10100100 "
b11110110 #
b101001000 $
b10 %
0,"
1-!
0/"
1-"
0L!
1M!
0k
1l
00"
1L
#830000
b11111110 #
b11111100 #
b11111000 #
b1010011 !
b10100110 "
b11111001 #
b101001100 $
b11 %
1/"
1L!
1k
10"
1,"
0,!
0-!
1.!
11"
13"
1j!
1E
03"
0j!
0E
#840000
b1010111 !
b10101110 "
b101011100 $
b1010101 !
b10101010 "
b101010100 $
b1 %
b11111101 #
b1010100 !
b10101000 "
b11111100 #
b101010000 $
b0 %
0,"
1-!
0/"
0-"
0L!
0M!
1N!
0k
0l
1m
00"
0L
1M
01"
13"
1j!
1E
03"
0j!
0E
